1;saida;pagamento;aguardando_lancamento;3;54.000000;2022-1-23;24-1-2022;
2;saida;pagamento;aguardando_lancamento;4;75.000000;2022-1-24;30-1-2022;
3;saida;pagamento;aguardando_lancamento;4;75.000000;2022-1-24;30-1-2022;
